…
### GSEA Plot

    ## # A tibble: 23 × 2
    ##    gs_cat gs_subcat        
    ##    <chr>  <chr>            
    ##  1 C1     ""               
    ##  2 C2     "CGP"            
    ##  3 C2     "CP"             
    ##  4 C2     "CP:BIOCARTA"    
    ##  5 C2     "CP:KEGG"        
    ##  6 C2     "CP:PID"         
    ##  7 C2     "CP:REACTOME"    
    ##  8 C2     "CP:WIKIPATHWAYS"
    ##  9 C3     "MIR:MIRDB"      
    ## 10 C3     "MIR:MIR_Legacy" 
    ## # ℹ 13 more rows
…
